%FSDAX25Y25*%
%MOIN*%
%SFA1B1*%

%IPPOS*%
%ADD9500C,0.013390*%
%ADD9501C,0.019680*%
%ADD9502C,0.025000*%
%ADD9503C,0.027990*%
%ADD9504C,0.031500*%
%ADD9505C,0.035000*%
%ADD9506C,0.035430*%
%ADD9507C,0.039370*%
%ADD9508C,0.047240*%
%ADD9509C,0.086610*%
%ADD9510C,0.096460*%
%ADD9511C,0.110240*%
%ADD9512C,0.118110*%
%LNu-tracker_si_boost_r1-1*%
%LPD*%
G54D9500*
X1337315Y0561398D03*
Y0565335D03*
X1341252D03*
X1345189D03*
Y0561398D03*
X1341252D03*
X1349126D03*
Y0565335D03*
G54D9501*
X1324756Y0442710D03*
X1328102D03*
Y0446057D03*
X1324756D03*
Y0449403D03*
X1328102D03*
X1331409Y0449449D03*
Y0446102D03*
Y0442756D03*
X1334756D03*
X1338024Y0442750D03*
X1341134Y0442828D03*
X1344480D03*
X1347748Y0442822D03*
X1351035Y0442815D03*
X1354303Y0442809D03*
X1354264Y0446076D03*
X1351035Y0446155D03*
Y0449502D03*
X1354264D03*
X1354303Y0452887D03*
X1351035Y0452894D03*
X1347748Y0452901D03*
X1344480Y0452907D03*
Y0456247D03*
X1347709Y0456169D03*
X1351035Y0456234D03*
X1354264Y0456155D03*
Y0459580D03*
X1351035D03*
X1347709Y0459594D03*
X1344480D03*
X1341134Y0459600D03*
X1337984Y0459521D03*
X1334756D03*
Y0456175D03*
X1337984Y0456096D03*
X1338024Y0452828D03*
X1341134Y0452907D03*
Y0456253D03*
Y0449521D03*
X1337984Y0449442D03*
X1334756D03*
Y0446096D03*
X1337984Y0446017D03*
X1341134Y0446175D03*
X1344480Y0446169D03*
X1347709Y0446090D03*
Y0449515D03*
X1344480D03*
X1334756Y0452835D03*
X1331409D03*
Y0456181D03*
Y0459528D03*
X1328102Y0459482D03*
X1324756D03*
Y0456135D03*
X1328102D03*
Y0452789D03*
X1324756D03*
X1323634Y0475965D03*
X1320287D03*
X1317276Y0476043D03*
X1317236Y0479311D03*
X1320287D03*
X1323634D03*
X1326941Y0479357D03*
Y0476010D03*
X1330287D03*
X1333555Y0476004D03*
X1336665Y0476083D03*
Y0479429D03*
X1333516Y0479272D03*
X1330287Y0479350D03*
X1340012Y0479423D03*
X1343240Y0479344D03*
X1343279Y0476076D03*
X1340012Y0476083D03*
X1346567Y0476069D03*
X1349835Y0476063D03*
X1353102Y0476043D03*
X1356390Y0476036D03*
X1359657Y0476030D03*
X1362748Y0476043D03*
X1362709Y0479311D03*
X1359618Y0479298D03*
X1356390Y0479376D03*
X1353063Y0479311D03*
X1349795Y0479331D03*
X1346567Y0479409D03*
X1347157Y0563268D03*
X1343221Y0563366D03*
X1339185D03*
X1335346Y0564055D03*
X1332197D03*
X1332295Y0567795D03*
X1335445D03*
X1338594D03*
X1341744D03*
X1344894D03*
X1348142D03*
X1281291Y0615604D03*
X1278024Y0615610D03*
Y0618950D03*
X1281252Y0618872D03*
Y0622297D03*
X1278024D03*
X1274677Y0622303D03*
X1271528Y0622224D03*
X1268299D03*
Y0618878D03*
X1271528Y0618799D03*
X1271567Y0615531D03*
X1274677Y0615610D03*
Y0618957D03*
X1264953Y0618884D03*
Y0622231D03*
X1261646Y0622185D03*
X1258299D03*
Y0618839D03*
X1261646D03*
Y0615492D03*
X1258299D03*
X1264953Y0615538D03*
X1268299D03*
X1197118Y0616634D03*
Y0619980D03*
X1197217Y0623307D03*
X1193811Y0623366D03*
X1190661Y0623327D03*
X1190563Y0620000D03*
X1193713Y0620039D03*
Y0616693D03*
X1190563Y0616653D03*
Y0613307D03*
X1193713Y0613346D03*
X1197118Y0613287D03*
X1187158Y0613366D03*
X1183811D03*
Y0616713D03*
X1187158D03*
Y0620059D03*
X1183811D03*
X1180465D03*
X1177217Y0620157D03*
X1173870D03*
X1170681Y0620079D03*
X1167335D03*
X1163988D03*
Y0616732D03*
Y0613386D03*
X1167335D03*
X1170681D03*
X1173870Y0613465D03*
X1177217D03*
X1180465Y0613366D03*
Y0616713D03*
X1177217Y0616811D03*
X1173870D03*
X1170681Y0616732D03*
X1167335D03*
X1167433Y0623406D03*
X1170780D03*
X1173969Y0623484D03*
X1177315D03*
X1180563Y0623386D03*
X1183909D03*
X1187256D03*
X1164087Y0623406D03*
X1160681Y0623465D03*
X1157335D03*
X1153988D03*
X1153890Y0620138D03*
Y0616791D03*
X1157236D03*
X1160583D03*
Y0620138D03*
X1157236D03*
Y0613445D03*
X1160583D03*
X1153890D03*
X1125878Y0614291D03*
X1122689Y0614213D03*
X1119343D03*
X1115996D03*
Y0617559D03*
Y0620905D03*
X1119343D03*
X1122689D03*
X1125878Y0620984D03*
Y0617638D03*
X1122689Y0617559D03*
X1119343D03*
X1119441Y0624232D03*
X1122787D03*
X1125976Y0624311D03*
X1116094Y0624232D03*
X1112689Y0624291D03*
X1112591Y0620965D03*
Y0617618D03*
Y0614272D03*
X1091449Y0663858D03*
X1088358Y0663845D03*
X1088398Y0666975D03*
X1091488Y0666988D03*
X1091449Y0670256D03*
X1088358Y0670243D03*
X1088299Y0673471D03*
X1091390Y0673484D03*
X1091350Y0676752D03*
X1088260Y0676739D03*
X1085032Y0676817D03*
Y0673477D03*
X1085130Y0670321D03*
Y0666981D03*
X1085091Y0663851D03*
X1081803Y0663858D03*
X1081843Y0666988D03*
X1078575Y0667008D03*
X1078535Y0663878D03*
X1075268Y0663884D03*
X1075307Y0667014D03*
X1072020Y0667021D03*
X1071980Y0663891D03*
X1068713Y0663898D03*
X1068752Y0667028D03*
Y0670368D03*
X1068653Y0673524D03*
X1071921Y0673517D03*
X1071980Y0670289D03*
X1075307Y0670354D03*
X1075209Y0673510D03*
X1078476Y0673504D03*
X1081744Y0673484D03*
X1081803Y0670256D03*
X1078535Y0670276D03*
X1078437Y0676772D03*
X1081705Y0676752D03*
X1082098Y0680295D03*
X1082138Y0683425D03*
X1078870Y0683445D03*
X1078831Y0680315D03*
X1075563Y0680321D03*
X1075602Y0683451D03*
X1072315Y0683458D03*
X1072276Y0680328D03*
X1069008Y0680335D03*
X1069047Y0683465D03*
X1065701D03*
X1065661Y0680335D03*
X1062551Y0680256D03*
X1062591Y0683386D03*
X1059323Y0683392D03*
X1059284Y0680262D03*
X1055937D03*
X1055976Y0683392D03*
X1052669Y0683347D03*
X1052630Y0680217D03*
X1049284D03*
X1049323Y0683347D03*
X1048929Y0676752D03*
X1052276D03*
Y0673406D03*
X1052374Y0670256D03*
X1049028D03*
X1048929Y0673406D03*
X1049028Y0666910D03*
X1048988Y0663779D03*
X1052335D03*
X1052374Y0666910D03*
X1055681Y0666955D03*
X1055642Y0663825D03*
X1058988D03*
X1059028Y0666955D03*
X1062295Y0666949D03*
X1062256Y0663819D03*
X1065366Y0663898D03*
X1065405Y0667028D03*
Y0670374D03*
X1065307Y0673524D03*
X1062197Y0673445D03*
X1058929Y0673451D03*
X1059028Y0670295D03*
X1062256Y0670217D03*
X1062158Y0676713D03*
X1065307Y0676870D03*
X1068653Y0676864D03*
X1071882Y0676785D03*
X1075209Y0676850D03*
X1085386Y0680288D03*
X1085425Y0683418D03*
X1088693Y0683412D03*
X1091784Y0683425D03*
X1091744Y0680295D03*
X1088653Y0680282D03*
X1087669Y0695931D03*
X1090760Y0695945D03*
X1090799Y0699075D03*
X1087709Y0699061D03*
X1084441Y0699068D03*
X1084402Y0695938D03*
X1081114Y0695945D03*
X1081153Y0699075D03*
X1077886Y0699094D03*
X1077847Y0695965D03*
X1074579Y0695971D03*
X1074618Y0699101D03*
X1071331Y0699108D03*
X1071291Y0695978D03*
X1068024Y0695984D03*
X1068063Y0699114D03*
Y0702454D03*
X1067965Y0705610D03*
X1071232Y0705604D03*
X1071291Y0702376D03*
X1074618Y0702441D03*
X1074520Y0705597D03*
X1077787Y0705590D03*
X1081055Y0705571D03*
X1081114Y0702343D03*
X1077847Y0702362D03*
X1077748Y0708858D03*
X1081016Y0708839D03*
X1084342Y0708904D03*
X1087571Y0708825D03*
X1090661Y0708839D03*
X1090701Y0705571D03*
X1087610Y0705557D03*
X1084342Y0705564D03*
X1084441Y0702408D03*
X1087669Y0702329D03*
X1090760Y0702343D03*
X1091055Y0712382D03*
X1087965Y0712368D03*
X1088004Y0715498D03*
X1091094Y0715512D03*
X1091055Y0718780D03*
X1087965Y0718766D03*
X1087906Y0721994D03*
X1090996Y0722008D03*
X1090957Y0725276D03*
X1087866Y0725262D03*
X1084638Y0725341D03*
Y0722001D03*
X1084736Y0718845D03*
Y0715505D03*
X1084697Y0712375D03*
X1081409Y0712382D03*
X1081449Y0715512D03*
X1078181Y0715531D03*
X1078142Y0712402D03*
X1074874Y0712408D03*
X1074913Y0715538D03*
X1071626Y0715545D03*
X1071587Y0712415D03*
X1068319Y0712421D03*
X1068358Y0715551D03*
Y0718891D03*
X1068260Y0722047D03*
X1071528Y0722041D03*
X1071587Y0718813D03*
X1074913Y0718878D03*
X1074815Y0722034D03*
X1078083Y0722028D03*
X1081350Y0722008D03*
X1081409Y0718780D03*
X1078142Y0718799D03*
X1078043Y0725295D03*
X1081311Y0725276D03*
X1074815Y0725374D03*
X1071488Y0725309D03*
X1068260Y0725387D03*
X1064913Y0725394D03*
X1061764Y0725236D03*
X1061803Y0721969D03*
X1064913Y0722047D03*
X1065012Y0718898D03*
X1061862Y0718740D03*
X1061902Y0715472D03*
X1061862Y0712343D03*
X1064972Y0712421D03*
X1065012Y0715551D03*
X1058634Y0715479D03*
X1058595Y0712349D03*
X1055248D03*
X1055287Y0715479D03*
Y0718825D03*
X1055189Y0721975D03*
X1058535D03*
X1058634Y0718819D03*
X1058535Y0725315D03*
X1055189Y0725321D03*
X1051882Y0725276D03*
X1048535D03*
X1045484D03*
X1045524Y0722008D03*
X1048535Y0721929D03*
X1048634Y0718780D03*
X1045583D03*
X1045622Y0715512D03*
X1048634Y0715433D03*
X1048594Y0712303D03*
X1045583Y0712382D03*
X1045189Y0708839D03*
X1048240D03*
X1051587D03*
Y0705492D03*
X1051685Y0702343D03*
X1048339D03*
X1045287D03*
X1045228Y0705571D03*
X1048240Y0705492D03*
X1048339Y0698996D03*
X1045327Y0699075D03*
X1045287Y0695945D03*
X1048299Y0695866D03*
X1051646D03*
X1051685Y0698996D03*
X1054992Y0699042D03*
X1054953Y0695912D03*
X1058299D03*
X1058339Y0699042D03*
X1061606Y0699035D03*
X1061567Y0695905D03*
X1064677Y0695984D03*
X1064717Y0699114D03*
Y0702461D03*
X1064618Y0705610D03*
X1061508Y0705532D03*
X1058240Y0705538D03*
X1058339Y0702382D03*
X1061567Y0702303D03*
X1061469Y0708799D03*
X1064618Y0708957D03*
X1067965Y0708950D03*
X1071193Y0708872D03*
X1074520Y0708937D03*
X1058240Y0708878D03*
X1054894Y0708884D03*
Y0705538D03*
X1054992Y0702388D03*
X1051941Y0712303D03*
X1051980Y0715433D03*
Y0718780D03*
X1051882Y0721929D03*
X1056409Y0734134D03*
X1059421Y0734055D03*
X1059461Y0737185D03*
X1056449Y0737264D03*
X1056409Y0740531D03*
X1059461D03*
X1059362Y0743681D03*
X1056350Y0743760D03*
X1056311Y0747027D03*
X1059362D03*
X1062709D03*
Y0743681D03*
X1062807Y0740531D03*
Y0737185D03*
X1062768Y0734055D03*
X1066075Y0734101D03*
X1066114Y0737231D03*
Y0740577D03*
X1066016Y0743727D03*
Y0747073D03*
X1069362Y0747067D03*
X1072591Y0746988D03*
X1072630Y0743720D03*
X1075740Y0743799D03*
X1075839Y0740650D03*
X1072689Y0740492D03*
X1072728Y0737224D03*
X1072689Y0734094D03*
X1075799Y0734173D03*
X1075839Y0737303D03*
X1079185D03*
X1079146Y0734173D03*
X1082413Y0734167D03*
X1082453Y0737297D03*
X1085740Y0737290D03*
X1085701Y0734160D03*
X1088968Y0734154D03*
X1089008Y0737283D03*
X1092276Y0737264D03*
X1092236Y0734134D03*
Y0740531D03*
X1088968Y0740551D03*
X1088909Y0743780D03*
X1085642Y0743786D03*
X1085740Y0740630D03*
X1082413Y0740564D03*
X1082354Y0743793D03*
X1079087Y0743799D03*
X1079185Y0740643D03*
X1079087Y0747139D03*
X1082315Y0747061D03*
X1085642Y0747126D03*
X1088870Y0747047D03*
X1092138Y0747027D03*
X1092177Y0743760D03*
X1075740Y0747146D03*
X1069362Y0743727D03*
X1069461Y0740571D03*
Y0737231D03*
X1069421Y0734101D03*
X1058929Y0676791D03*
X1055583Y0676798D03*
Y0673451D03*
X1055681Y0670302D03*
X1094598Y0670256D03*
X1097866Y0670236D03*
X1097807Y0673465D03*
X1094539Y0673484D03*
X1094500Y0676752D03*
X1097768Y0676732D03*
X1098161Y0680276D03*
X1098201Y0683405D03*
X1094933Y0683425D03*
X1094894Y0680295D03*
X1094638Y0666988D03*
X1094598Y0663858D03*
X1097866Y0663839D03*
X1097906Y0666968D03*
X1097177Y0695925D03*
X1097217Y0699055D03*
X1093949Y0699075D03*
X1093909Y0695945D03*
Y0702343D03*
X1097177Y0702323D03*
X1097118Y0705551D03*
X1093850Y0705571D03*
X1093811Y0708839D03*
X1097079Y0708819D03*
X1097472Y0712362D03*
X1097512Y0715492D03*
X1094244Y0715512D03*
X1094205Y0712382D03*
Y0718780D03*
X1097472Y0718760D03*
X1097413Y0721988D03*
X1094146Y0722008D03*
X1094106Y0725276D03*
X1097374Y0725256D03*
X1100602Y0725177D03*
X1100642Y0721910D03*
X1100701Y0718681D03*
X1104027Y0718747D03*
X1103929Y0721902D03*
X1107197Y0721896D03*
X1110287Y0721910D03*
X1113437D03*
X1116705Y0721890D03*
X1116764Y0718661D03*
X1113496Y0718681D03*
X1110347D03*
X1107256Y0718668D03*
X1107158Y0725164D03*
X1110248Y0725177D03*
X1113398D03*
X1116665Y0725157D03*
X1117945Y0734114D03*
X1114854Y0734101D03*
X1114894Y0737231D03*
X1117984Y0737244D03*
X1117945Y0740512D03*
X1114854Y0740498D03*
X1114795Y0743727D03*
X1117886Y0743740D03*
X1117846Y0747008D03*
X1114756Y0746994D03*
X1111528Y0747073D03*
Y0743733D03*
X1111626Y0740577D03*
Y0737237D03*
X1111587Y0734107D03*
X1108299Y0734114D03*
X1108339Y0737244D03*
X1105071Y0737264D03*
X1101921D03*
X1098831Y0737250D03*
X1098791Y0734121D03*
X1101882Y0734134D03*
X1105031D03*
Y0740531D03*
X1101882D03*
X1098791Y0740518D03*
X1098732Y0743747D03*
X1101823Y0743760D03*
X1104972D03*
X1108240Y0743740D03*
X1108299Y0740512D03*
X1108201Y0747008D03*
X1104933Y0747028D03*
X1101783Y0747027D03*
X1098693Y0747014D03*
X1095465Y0747093D03*
Y0743753D03*
X1095563Y0740597D03*
Y0737257D03*
X1095524Y0734127D03*
X1103929Y0725243D03*
X1154480Y0726358D03*
X1157630D03*
X1160701Y0726398D03*
X1163850D03*
X1167197D03*
X1170543D03*
X1173811D03*
X1177157D03*
X1180504D03*
X1183772D03*
Y0723051D03*
X1180504D03*
X1177157D03*
X1173811D03*
X1170543D03*
Y0719744D03*
X1167197D03*
Y0723051D03*
X1163850D03*
X1160701D03*
X1157630Y0723012D03*
X1154480D03*
X1154559Y0719705D03*
X1157630D03*
X1160779Y0719744D03*
X1163850D03*
Y0716398D03*
X1160779D03*
X1157630Y0716358D03*
X1154559D03*
Y0713012D03*
X1157630D03*
X1160779Y0713051D03*
X1163850D03*
X1163890Y0709862D03*
X1160898D03*
X1157669Y0709823D03*
X1154677D03*
Y0706476D03*
X1157669D03*
X1160898Y0706516D03*
X1163890D03*
Y0703169D03*
X1160898D03*
X1157669Y0703130D03*
X1154677D03*
Y0699784D03*
X1157827Y0699744D03*
X1160898Y0699823D03*
X1164047Y0699784D03*
X1167394D03*
X1170740D03*
X1174008Y0699823D03*
Y0703169D03*
X1177354D03*
Y0699823D03*
X1180701D03*
X1183969D03*
Y0703169D03*
X1180701D03*
Y0706516D03*
X1183969D03*
Y0709862D03*
X1180701D03*
X1180583Y0713051D03*
X1183850D03*
Y0716398D03*
X1180583D03*
X1177236D03*
X1173890D03*
X1170543D03*
X1167197D03*
Y0713051D03*
X1167236Y0709862D03*
X1170583D03*
X1170543Y0713051D03*
X1173890D03*
X1174008Y0709862D03*
X1177354D03*
X1177236Y0713051D03*
X1177354Y0706516D03*
X1174008D03*
X1170583D03*
X1167236D03*
Y0703169D03*
X1170583D03*
X1170740Y0696437D03*
X1174008Y0696476D03*
X1177354D03*
X1180701D03*
X1183969D03*
Y0693130D03*
X1180701D03*
X1177354D03*
X1174008D03*
X1170740Y0693090D03*
X1167394D03*
X1167315Y0689823D03*
X1170661D03*
X1173929D03*
X1177276D03*
X1180622D03*
X1183890D03*
Y0686476D03*
X1180622D03*
X1177276D03*
Y0683130D03*
X1180622D03*
X1183890D03*
X1183969Y0679823D03*
X1180701D03*
X1177354D03*
X1174008D03*
Y0676476D03*
Y0673130D03*
X1177354D03*
X1180701D03*
X1183969D03*
Y0676476D03*
X1180701D03*
X1177354D03*
X1170661D03*
X1167315D03*
Y0673130D03*
X1170661D03*
X1170701Y0669744D03*
X1167354D03*
Y0666398D03*
X1170701D03*
Y0663051D03*
X1167354D03*
X1164008D03*
X1160937D03*
X1157787Y0663012D03*
X1154716D03*
Y0666358D03*
X1157787D03*
X1160937Y0666398D03*
X1164008D03*
Y0669744D03*
X1160937D03*
X1157787Y0669705D03*
X1154716D03*
X1154677Y0673091D03*
X1157748D03*
X1160898Y0673130D03*
X1163968D03*
Y0676476D03*
X1160898D03*
X1157748Y0676437D03*
X1154677D03*
Y0679783D03*
X1157748D03*
X1160898Y0679823D03*
X1163968D03*
Y0683130D03*
X1160819D03*
X1157748Y0683090D03*
X1154598D03*
Y0686437D03*
X1157748D03*
X1160819Y0686476D03*
X1163968D03*
Y0689823D03*
X1160819D03*
X1157748Y0689783D03*
X1154598D03*
X1154677Y0693090D03*
X1157827Y0693051D03*
X1160898Y0693130D03*
X1164047Y0693090D03*
Y0696437D03*
X1160898Y0696476D03*
X1157827Y0696398D03*
X1154677Y0696437D03*
X1167394D03*
X1167315Y0686476D03*
X1170661D03*
X1173929D03*
Y0683130D03*
X1170661D03*
Y0679823D03*
X1167315D03*
Y0683130D03*
X1174047Y0669744D03*
Y0666398D03*
X1177394D03*
X1180740D03*
X1184008D03*
Y0663051D03*
X1180740D03*
X1177394D03*
X1174047D03*
X1177394Y0669744D03*
X1180740D03*
X1184008D03*
X1198181Y0668366D03*
Y0671713D03*
Y0675138D03*
X1198142Y0678602D03*
Y0681949D03*
Y0685295D03*
Y0688563D03*
Y0691910D03*
Y0695256D03*
Y0698681D03*
X1198102Y0702146D03*
Y0705492D03*
Y0708839D03*
Y0712264D03*
X1198260Y0715807D03*
X1201921Y0715689D03*
X1205268D03*
X1208614D03*
X1211961D03*
X1215268Y0715610D03*
X1218614D03*
X1221961D03*
X1225268Y0715689D03*
X1225110Y0712146D03*
Y0708799D03*
X1221803D03*
Y0712067D03*
X1218457D03*
Y0708799D03*
Y0705453D03*
X1221803D03*
X1225110D03*
Y0702106D03*
X1221803D03*
X1218457D03*
X1215110D03*
X1211843Y0702185D03*
Y0705532D03*
Y0708878D03*
X1211803Y0712146D03*
X1208457D03*
X1208496Y0708878D03*
Y0705532D03*
X1205150D03*
Y0708878D03*
X1205110Y0712146D03*
X1201764D03*
Y0708720D03*
Y0705374D03*
Y0702028D03*
X1201803Y0698563D03*
X1205150D03*
X1205189Y0695295D03*
Y0691949D03*
X1208535D03*
Y0695295D03*
X1208496Y0698563D03*
X1211843D03*
X1211882Y0695295D03*
X1215150Y0695217D03*
Y0698484D03*
X1218496D03*
Y0695217D03*
Y0691870D03*
Y0688524D03*
Y0685256D03*
Y0681910D03*
Y0678563D03*
X1215150D03*
X1211882Y0678642D03*
X1208535D03*
Y0681988D03*
Y0685335D03*
Y0688602D03*
X1205189D03*
Y0685335D03*
Y0681988D03*
Y0678642D03*
X1201803Y0678484D03*
Y0681831D03*
Y0685177D03*
Y0688445D03*
Y0691791D03*
Y0695138D03*
X1205150Y0702185D03*
X1208496D03*
X1215110Y0705453D03*
Y0708799D03*
Y0712067D03*
X1215150Y0691870D03*
X1211882Y0691949D03*
Y0688602D03*
Y0685335D03*
X1215150Y0685256D03*
Y0688524D03*
Y0681910D03*
X1211882Y0681988D03*
Y0675020D03*
X1211921Y0671752D03*
Y0668405D03*
X1215189Y0668327D03*
Y0671673D03*
Y0674941D03*
X1218535D03*
Y0671673D03*
Y0668327D03*
X1221882D03*
X1225189D03*
Y0671673D03*
X1221882D03*
Y0674941D03*
X1225189Y0675020D03*
X1225150Y0678563D03*
X1221842D03*
Y0681910D03*
X1225150D03*
Y0685256D03*
Y0688524D03*
X1221842D03*
Y0685256D03*
Y0691870D03*
X1225150D03*
Y0695217D03*
X1221842D03*
Y0698484D03*
X1225150Y0698563D03*
X1225189Y0664980D03*
X1221882D03*
X1218535D03*
X1215189D03*
X1211921Y0665059D03*
X1208575D03*
X1205228D03*
Y0668405D03*
Y0671752D03*
X1205189Y0675020D03*
X1201842D03*
Y0671594D03*
Y0668248D03*
Y0664902D03*
X1198181Y0665020D03*
X1208575Y0668405D03*
Y0671752D03*
X1208535Y0675020D03*
X1197197Y0636634D03*
X1197098Y0633307D03*
X1197217Y0630000D03*
Y0626653D03*
X1193811Y0626713D03*
X1190661Y0626673D03*
Y0630020D03*
X1193811Y0630059D03*
X1193693Y0633366D03*
X1190543Y0633327D03*
X1190642Y0636654D03*
X1193791Y0636693D03*
X1187236Y0636713D03*
X1183890D03*
X1180543D03*
X1177295Y0636811D03*
X1173949D03*
X1170760Y0636732D03*
X1167413D03*
X1164067D03*
X1163968Y0633405D03*
X1167315D03*
X1170661D03*
X1173850Y0633484D03*
X1177197D03*
X1180445Y0633386D03*
X1183791D03*
X1187138D03*
X1187256Y0630079D03*
X1183909D03*
X1180563D03*
X1177315Y0630177D03*
X1173969D03*
X1170780Y0630098D03*
X1167433D03*
Y0626752D03*
X1170780D03*
X1173969Y0626831D03*
X1177315D03*
X1180563Y0626732D03*
X1183909D03*
X1187256D03*
X1164087Y0626752D03*
Y0630098D03*
X1160681Y0630158D03*
X1157335D03*
X1153988D03*
Y0626811D03*
X1157335D03*
X1160681D03*
X1160563Y0633465D03*
X1157216D03*
X1153870D03*
X1153969Y0636791D03*
X1157315D03*
X1160661D03*
X1127315Y0637776D03*
X1124126Y0637697D03*
X1120780D03*
X1117433D03*
X1114028Y0637756D03*
X1113752Y0634291D03*
X1117157Y0634232D03*
X1120504D03*
X1123850D03*
X1127039Y0634311D03*
X1125976Y0631004D03*
X1122787Y0630925D03*
X1119441D03*
Y0627579D03*
X1122787D03*
X1125976Y0627658D03*
X1116094Y0627579D03*
Y0630925D03*
X1112689Y0630984D03*
Y0627638D03*
X1154480Y0729705D03*
X1157630D03*
X1160701Y0729744D03*
X1163850D03*
X1163929Y0733012D03*
X1160779Y0733051D03*
X1157709Y0732972D03*
X1154559Y0733012D03*
Y0736358D03*
X1157709Y0736319D03*
X1160779Y0736398D03*
X1163929Y0736358D03*
X1167276D03*
X1170622D03*
X1173890Y0736398D03*
Y0733051D03*
X1170622Y0733012D03*
X1170543Y0729744D03*
X1173811D03*
X1177157D03*
X1180504D03*
X1183772D03*
X1183850Y0733051D03*
X1180583D03*
X1177236D03*
Y0736398D03*
X1180583D03*
X1183850D03*
Y0739744D03*
X1180583D03*
Y0743090D03*
X1183850D03*
Y0746437D03*
X1180583D03*
X1177236D03*
X1173890D03*
Y0749784D03*
X1177236D03*
X1180583D03*
X1183850D03*
X1177236Y0743090D03*
Y0739744D03*
X1173890D03*
X1170622Y0739705D03*
X1167276D03*
X1163929D03*
X1160779Y0739744D03*
X1157709Y0739665D03*
X1154559Y0739705D03*
Y0743051D03*
X1157551D03*
X1160779Y0743090D03*
X1163772D03*
Y0746437D03*
X1160779D03*
X1157551Y0746398D03*
X1154559D03*
Y0749744D03*
X1157551D03*
X1160779Y0749784D03*
X1163772D03*
X1167118D03*
X1170465D03*
Y0746437D03*
X1167118D03*
Y0743090D03*
X1170465D03*
X1173890D03*
X1167276Y0733012D03*
X1167197Y0729744D03*
X1173890Y0719744D03*
X1177236D03*
X1180583D03*
X1183850D03*
X1268693Y0718524D03*
X1272039D03*
X1275386D03*
Y0715177D03*
X1272039D03*
Y0711831D03*
X1275386D03*
X1278732Y0711791D03*
X1282079D03*
X1285425D03*
X1288693Y0711831D03*
X1292039D03*
X1295386D03*
X1298535Y0711693D03*
X1301803Y0711732D03*
Y0715079D03*
X1298535Y0715039D03*
X1295386Y0715177D03*
X1295347Y0718248D03*
X1292079Y0718287D03*
X1292039Y0715177D03*
X1288693D03*
X1285425Y0715138D03*
X1282079D03*
Y0718484D03*
X1285425D03*
X1288693Y0718524D03*
X1298535Y0718386D03*
X1301803Y0718425D03*
X1305189Y0718189D03*
X1305150Y0715079D03*
X1308496D03*
X1308457Y0718150D03*
X1308496Y0711732D03*
X1305150D03*
Y0708110D03*
X1308496D03*
Y0704764D03*
X1305150D03*
X1301803D03*
Y0708110D03*
X1298535Y0707992D03*
Y0704646D03*
Y0701299D03*
X1295386Y0701516D03*
X1292039D03*
X1288693D03*
Y0704862D03*
Y0708209D03*
X1292039D03*
X1295386D03*
Y0704862D03*
X1292039D03*
X1285425Y0704744D03*
X1282079D03*
Y0701398D03*
X1285425D03*
X1278732D03*
Y0704744D03*
Y0708090D03*
X1282079D03*
X1285425D03*
X1275386Y0708130D03*
X1272039D03*
X1268693D03*
Y0704783D03*
Y0701437D03*
X1272039D03*
X1275386D03*
Y0704783D03*
X1272039D03*
X1268693Y0711831D03*
Y0715177D03*
X1278732Y0715138D03*
Y0718484D03*
X1301803Y0701417D03*
X1305150D03*
X1308496D03*
X1337787Y0700610D03*
Y0703957D03*
X1341134D03*
X1344283Y0704055D03*
Y0700709D03*
X1341134Y0700610D03*
X1341179Y0697303D03*
X1344329Y0697402D03*
Y0694055D03*
X1341173Y0693957D03*
X1341094Y0690728D03*
X1344323Y0690787D03*
X1344402Y0687677D03*
X1341252Y0687579D03*
X1337906D03*
X1334776Y0687618D03*
X1334697Y0690728D03*
X1337827Y0690689D03*
X1337833Y0693957D03*
Y0697303D03*
X1337866Y0707283D03*
X1337906Y0710413D03*
X1341252D03*
X1341213Y0707283D03*
X1344520Y0707329D03*
X1344559Y0710459D03*
X1347906D03*
X1347866Y0707329D03*
X1351134Y0707323D03*
X1351173Y0710453D03*
X1354284Y0710532D03*
X1354244Y0707402D03*
X1357591D03*
X1357630Y0710532D03*
X1360898Y0710525D03*
X1360858Y0707395D03*
X1364146Y0707388D03*
X1364185Y0710518D03*
X1367453Y0710512D03*
X1367413Y0707382D03*
Y0704252D03*
X1367492Y0701142D03*
X1367486Y0697874D03*
X1370642Y0697972D03*
X1370720Y0701201D03*
X1370563Y0704350D03*
X1370681Y0707362D03*
X1370720Y0710492D03*
X1374008Y0710485D03*
X1373969Y0707355D03*
X1373909Y0704350D03*
X1377039Y0704311D03*
X1377118Y0701201D03*
X1373988Y0701240D03*
X1373982Y0697972D03*
X1377112Y0697933D03*
Y0694587D03*
X1373982Y0694626D03*
X1370635D03*
X1367486Y0694528D03*
X1367531Y0691221D03*
X1370681Y0691319D03*
Y0687972D03*
X1367531Y0687874D03*
X1364185D03*
X1374028Y0687972D03*
X1377157Y0687933D03*
Y0691280D03*
X1374028Y0691319D03*
X1373713Y0674061D03*
X1376941Y0673983D03*
X1376980Y0670715D03*
X1376941Y0667585D03*
X1376744Y0664547D03*
X1373614Y0664587D03*
X1373673Y0667591D03*
X1373713Y0670721D03*
X1370425Y0670728D03*
X1370386Y0667598D03*
X1370268Y0664587D03*
X1367118Y0664488D03*
Y0667618D03*
X1367157Y0670748D03*
X1363890Y0670754D03*
X1363850Y0667624D03*
X1363772Y0664488D03*
X1360563Y0667631D03*
X1360602Y0670761D03*
X1357335Y0670768D03*
X1357295Y0667638D03*
X1353949D03*
X1353988Y0670768D03*
X1350878Y0670689D03*
X1350839Y0667559D03*
X1347571Y0667565D03*
X1347610Y0670695D03*
Y0674035D03*
X1350839Y0673957D03*
X1353988Y0674114D03*
X1357335Y0674108D03*
X1360563Y0674029D03*
X1363890Y0674094D03*
X1367118Y0674016D03*
X1370386Y0673996D03*
X1370425Y0661437D03*
X1367197Y0661378D03*
X1367190Y0658110D03*
X1370347Y0658209D03*
X1373687D03*
X1376816Y0658169D03*
X1376823Y0661437D03*
X1373693Y0661476D03*
X1373687Y0654862D03*
X1376816Y0654823D03*
X1376862Y0651516D03*
X1373732Y0651555D03*
Y0648209D03*
X1376862Y0648169D03*
X1376842Y0644750D03*
X1373614Y0644829D03*
X1370287Y0644764D03*
X1367020Y0644783D03*
X1363791Y0644862D03*
X1363890Y0648110D03*
X1367236D03*
X1370386Y0648209D03*
Y0651555D03*
X1367236Y0651457D03*
X1367190Y0654764D03*
X1370340Y0654862D03*
X1360465Y0644797D03*
X1357236Y0644876D03*
X1353890Y0644882D03*
X1350740Y0644724D03*
X1347512Y0644803D03*
X1347453Y0647913D03*
X1344106D03*
X1344165Y0644809D03*
X1340858Y0644764D03*
X1340957Y0647815D03*
X1340799Y0650964D03*
X1344028Y0651024D03*
X1344034Y0654291D03*
X1340878Y0654193D03*
X1337538D03*
X1337531Y0650925D03*
X1337610Y0647815D03*
X1337512Y0644764D03*
X1334303Y0644724D03*
Y0648071D03*
Y0651339D03*
Y0654685D03*
Y0658032D03*
X1330957D03*
X1327610D03*
X1324343Y0658110D03*
Y0654764D03*
X1327610Y0654685D03*
Y0651339D03*
Y0648071D03*
X1324343Y0648150D03*
Y0651417D03*
X1320996D03*
Y0648150D03*
X1317650D03*
Y0651417D03*
X1314342Y0648150D03*
Y0644803D03*
X1317650D03*
X1320996D03*
X1324343D03*
X1327610Y0644724D03*
X1330957D03*
Y0648071D03*
Y0651339D03*
Y0654685D03*
Y0661654D03*
X1330917Y0664921D03*
X1334264D03*
X1334303Y0661654D03*
X1337492Y0660847D03*
Y0664193D03*
X1340839D03*
X1343988Y0664291D03*
Y0660945D03*
X1340839Y0660847D03*
X1340884Y0657539D03*
X1344034Y0657638D03*
X1337538Y0657539D03*
X1337571Y0667520D03*
X1337610Y0670650D03*
X1340957D03*
X1340917Y0667520D03*
X1344224Y0667565D03*
X1344264Y0670695D03*
Y0674042D03*
X1340957Y0673996D03*
X1337610D03*
X1334264Y0668268D03*
X1327610Y0661654D03*
X1320996Y0654764D03*
X1347335Y0664291D03*
X1347748Y0687677D03*
X1347630Y0704055D03*
X1347906Y0713799D03*
X1351134Y0713721D03*
X1354284Y0713878D03*
X1357630Y0713872D03*
X1360858Y0713793D03*
X1364185Y0713858D03*
X1367413Y0713779D03*
X1370681Y0713760D03*
X1374008Y0713825D03*
X1377236Y0713747D03*
X1377276Y0710479D03*
X1377236Y0707349D03*
X1364067Y0704252D03*
X1364992Y0727835D03*
X1361724Y0727841D03*
X1358437Y0727848D03*
X1355169Y0727854D03*
Y0731194D03*
X1358398Y0731116D03*
X1361724Y0731181D03*
X1364953Y0731102D03*
X1368221Y0731083D03*
X1368260Y0727815D03*
X1371547Y0727808D03*
X1374815Y0727802D03*
X1374776Y0731069D03*
X1378063Y0731083D03*
X1381409D03*
Y0727736D03*
X1378063D03*
X1384717Y0727782D03*
X1388063D03*
Y0731122D03*
X1384717Y0731128D03*
X1371547Y0731148D03*
X1351823Y0731201D03*
X1348673Y0731043D03*
X1348713Y0727776D03*
X1351823Y0727854D03*
X1345445Y0727782D03*
Y0731122D03*
X1342098Y0731128D03*
Y0727782D03*
X1338791Y0727736D03*
X1335445D03*
Y0731083D03*
X1338791D03*
X1337906Y0713760D03*
X1341252D03*
X1344559Y0713805D03*
X1281252Y0632376D03*
X1278024D03*
Y0629029D03*
X1281252Y0628950D03*
X1281291Y0625683D03*
X1278024Y0625689D03*
X1274677D03*
X1271567Y0625610D03*
X1268299Y0625617D03*
Y0628957D03*
X1271528Y0628878D03*
X1274677Y0629035D03*
Y0632382D03*
X1271528Y0632303D03*
X1268299D03*
X1264953Y0632309D03*
Y0628963D03*
Y0625617D03*
X1261646Y0625571D03*
X1258299D03*
Y0628917D03*
X1261646D03*
Y0632264D03*
X1258299D03*
G54D9502*
X1087709Y0482264D03*
Y0492264D03*
Y0502264D03*
G54D9503*
X1272551Y0456181D03*
X1268417Y0469075D03*
X1290858Y0522224D03*
X1300307Y0530295D03*
Y0535413D03*
Y0540531D03*
Y0545650D03*
X1305524D03*
Y0540531D03*
Y0535413D03*
X1342039D03*
X1349815Y0535512D03*
X1358870Y0551949D03*
X1365366Y0564547D03*
X1359128Y0590295D03*
X1348535Y0593878D03*
X1341449Y0596339D03*
X1335937Y0600276D03*
X1341067Y0609713D03*
X1326685Y0614547D03*
Y0571142D03*
X1374028Y0538268D03*
X1371764Y0614153D03*
X1275996Y0605000D03*
X1271173Y0598209D03*
X1233476Y0599390D03*
X1206803Y0592205D03*
X1145425Y0578917D03*
X1150740Y0556476D03*
X1157354Y0556437D03*
X1164559Y0557342D03*
X1172748Y0536988D03*
X1129362Y0546043D03*
X1135819Y0552697D03*
X1110110Y0556437D03*
X1104126Y0532972D03*
X1101173Y0526516D03*
X1097906Y0503051D03*
X1131173Y0471831D03*
X1104362Y0596634D03*
X1082197Y0601457D03*
X1075406Y0600472D03*
X1065465Y0609232D03*
X1064382Y0575768D03*
X1064874Y0543090D03*
X1091842Y0634134D03*
X1239283Y0663957D03*
X1276685Y0690846D03*
X1168850Y0447815D03*
X1212984Y0462539D03*
X1239717Y0468524D03*
X1268732Y0479783D03*
X1268654Y0489783D03*
X1251095Y0552303D03*
X1231449Y0544626D03*
X1219047Y0546516D03*
X1209480Y0547028D03*
X1202709Y0547225D03*
X1194756Y0545807D03*
X1191488Y0539350D03*
X1190307Y0523563D03*
X1182945Y0529980D03*
X1181331Y0501122D03*
X1187984Y0501201D03*
X1211803Y0492579D03*
X1229677Y0486240D03*
X1229795Y0479705D03*
X1249874Y0489114D03*
X1228969Y0508839D03*
X1209835Y0524902D03*
X1151213Y0524114D03*
X1148890Y0508012D03*
X1150465Y0493327D03*
X1131193D03*
X1129795Y0506752D03*
X1114165Y0495965D03*
X1131134Y0477224D03*
X1116724Y0546437D03*
X1104362Y0546516D03*
X1178535Y0564429D03*
X1230622Y0566043D03*
X1087295Y0514626D03*
X1072492D03*
X1234598Y0757146D03*
X1271370Y0690807D03*
X1281685Y0690846D03*
X1254992Y0663681D03*
X1413772Y0698209D03*
G54D9504*
X1173693Y0468681D03*
X1312158Y0464744D03*
Y0445059D03*
X1373260D03*
Y0464744D03*
X1173693Y0488366D03*
G54D9505*
X1137512Y0411791D03*
X1147512D03*
Y0421791D03*
X1137512D03*
X1157512D03*
X1167512D03*
Y0411791D03*
X1177512D03*
X1187512D03*
Y0421791D03*
X1177512D03*
X1197512D03*
Y0411791D03*
X1207512D03*
X1217512D03*
X1227512D03*
X1237512D03*
Y0421791D03*
X1227512D03*
X1217512D03*
X1207512D03*
X1247512D03*
Y0411791D03*
X1157512D03*
X1257512D03*
X1267512D03*
X1277512D03*
X1287512D03*
Y0421791D03*
X1277512D03*
X1267512D03*
X1257512D03*
X1297512D03*
X1307512D03*
X1317512D03*
Y0411791D03*
X1327512D03*
Y0421791D03*
X1337512Y0421691D03*
Y0411691D03*
X1347512Y0411791D03*
Y0421791D03*
X1357512D03*
X1367512D03*
Y0411791D03*
X1377512D03*
Y0421791D03*
X1357512Y0411791D03*
X1307512D03*
X1297512D03*
G54D9506*
X1061921Y0448287D03*
X1071921D03*
Y0458287D03*
X1061921D03*
X1128850Y0448366D03*
Y0438366D03*
X1138850D03*
X1148850D03*
Y0448366D03*
X1138850D03*
X1158850D03*
Y0438366D03*
X1255858Y0535610D03*
X1265858D03*
X1275858D03*
Y0545610D03*
X1265858D03*
X1255858D03*
X1265858Y0555610D03*
X1275858D03*
Y0565610D03*
X1265858D03*
X1265860Y0575610D03*
Y0585610D03*
X1275860D03*
Y0575610D03*
X1245858Y0545610D03*
Y0535610D03*
X1183260Y0583996D03*
X1173260D03*
Y0593996D03*
X1183260D03*
X1128811Y0536240D03*
X1118811D03*
Y0526240D03*
X1128811D03*
X1072315Y0488287D03*
Y0478287D03*
X1062315D03*
Y0488287D03*
X1052630Y0555059D03*
Y0565059D03*
X1042630D03*
Y0555059D03*
X1404008Y0729350D03*
Y0739350D03*
X1414008D03*
Y0729350D03*
G54D9507*
X1312079Y0502461D03*
Y0522461D03*
Y0582461D03*
Y0592461D03*
X1372079D03*
Y0582461D03*
Y0522461D03*
Y0502461D03*
X1090937Y0758996D03*
Y0776713D03*
X1065347D03*
Y0758996D03*
X1234717Y0744153D03*
Y0734153D03*
Y0724153D03*
G54D9508*
X1357197Y0742273D03*
X1350237Y0752332D03*
Y0762413D03*
X1364157D03*
Y0752332D03*
G54D9509*
X1111094Y0667264D03*
Y0706634D03*
X1355562Y0695461D03*
Y0656090D03*
G54D9510*
X1327669Y0757373D03*
X1386724D03*
G54D9511*
X1327669Y0773121D03*
X1386724D03*
G54D9512*
X1053451Y0405324D03*
X1403851D03*
X1414205Y0619665D03*
X1403851Y0590224D03*
X1053451D03*
X1043496Y0619665D03*
Y0743878D03*
Y0767894D03*
X1189574Y0770605D03*
X1220547Y0770590D03*
X1251897Y0770684D03*
X1282870Y0770669D03*
X1300071Y0734153D03*
X1414047Y0766988D03*
M02*